Lec 08 - Functional programming & purrr
…
---

## list columns

.pull-left[

```r
(chars = tibble(
  name = purrr::map_chr(sw_people, "name"),
  starships = purrr::map(sw_people, "starships")
))
```

```
## # A tibble: 87 x 2
##    name               starships
##    <chr>              <list>   
##  1 Luke Skywalker     <chr [2]>
##  2 C-3PO              <NULL>   
##  3 R2-D2              <NULL>   
##  4 Darth Vader        <chr [1]>
##  5 Leia Organa        <NULL>   
##  6 Owen Lars          <NULL>   
##  7 Beru Whitesun lars <NULL>   
##  8 R5-D4              <NULL>   
##  9 Biggs Darklighter  <chr [1]>
## 10 Obi-Wan Kenobi     <chr [5]>
## # … with 77 more rows
```
]

.pull-right[

```r
chars %>%
  mutate(
    n_starships = map_int(starships, length)
  )
```

```
## # A tibble: 87 x 3
##    name               starships n_starships
##    <chr>              <list>          <int>
##  1 Luke Skywalker     <chr [2]>           2
##  2 C-3PO              <NULL>              0
##  3 R2-D2              <NULL>              0
##  4 Darth Vader        <chr [1]>           1
##  5 Leia Organa        <NULL>              0
##  6 Owen Lars          <NULL>              0
##  7 Beru Whitesun lars <NULL>              0
##  8 R5-D4              <NULL>              0
##  9 Biggs Darklighter  <chr [1]>           1
## 10 Obi-Wan Kenobi     <chr [5]>           5
## # … with 77 more rows
```
…
