Lec 09 - Visualization with ggplot2
…
## Tidy anscombe

.midi[

```r
(tidy_anscombe = datasets::anscombe %>%
  pivot_longer(everything(), names_sep = 1, names_to = c("var", "group")) %>%
  pivot_wider(id_cols = group, names_from = var, 
              values_from = value, values_fn = list(value = list)) %>% 
  unnest(cols = c(x,y)))
```

```
## # A tibble: 44 x 3
##    group     x     y
##    <chr> <dbl> <dbl>
##  1 1        10  8.04
##  2 1         8  6.95
##  3 1        13  7.58
##  4 1         9  8.81
##  5 1        11  8.33
##  6 1        14  9.96
##  7 1         6  7.24
##  8 1         4  4.26
##  9 1        12 10.8 
## 10 1         7  4.82
## # … with 34 more rows
```
…
---

## DatasauRus

.pull-left33[

```r
datasauRus::datasaurus_dozen
```

```
## # A tibble: 1,846 x 3
##    dataset     x     y
##    <chr>   <dbl> <dbl>
##  1 dino     55.4  97.2
##  2 dino     51.5  96.0
##  3 dino     46.2  94.5
##  4 dino     42.8  91.4
##  5 dino     40.8  88.3
##  6 dino     38.7  84.9
##  7 dino     35.6  79.9
##  8 dino     33.1  77.6
##  9 dino     29.0  74.5
## 10 dino     26.2  71.4
## # … with 1,836 more rows
```
…
